current directory: /home/marcos/estoque/path/ruby/2.3.0/gems/json-1.8.6/ext/json
/home/marcos/.rbenv/versions/2.3.1/bin/ruby -r ./siteconf20170124-3777-rxkmlm.rb extconf.rb 
creating Makefile

current directory: /home/marcos/estoque/path/ruby/2.3.0/gems/json-1.8.6/ext/json
make "DESTDIR=" clean

current directory: /home/marcos/estoque/path/ruby/2.3.0/gems/json-1.8.6/ext/json
make "DESTDIR="
make: Nothing to be done for 'all'.

current directory: /home/marcos/estoque/path/ruby/2.3.0/gems/json-1.8.6/ext/json
make "DESTDIR=" install
