current directory: /home/marcos/estoque/path/ruby/2.3.0/gems/websocket-driver-0.6.5/ext/websocket-driver
/home/marcos/.rbenv/versions/2.3.1/bin/ruby -r ./siteconf20170124-3777-q2e5p8.rb extconf.rb 
creating Makefile

current directory: /home/marcos/estoque/path/ruby/2.3.0/gems/websocket-driver-0.6.5/ext/websocket-driver
make "DESTDIR=" clean

current directory: /home/marcos/estoque/path/ruby/2.3.0/gems/websocket-driver-0.6.5/ext/websocket-driver
make "DESTDIR="
compiling websocket_mask.c
linking shared-object websocket_mask.so

current directory: /home/marcos/estoque/path/ruby/2.3.0/gems/websocket-driver-0.6.5/ext/websocket-driver
make "DESTDIR=" install
/usr/bin/install -c -m 0755 websocket_mask.so ./.gem.20170124-3777-x3nt1j
